[gd_scene load_steps=2 format=2]

[ext_resource path="res://scenes/gate/gate_io/GateIO.gd" type="Script" id=1]

[node name="GateIO" type="Control"]
margin_right = 16.0
margin_bottom = 16.0
script = ExtResource( 1 )

[node name="Center" type="Control" parent="."]
anchor_left = 0.5
anchor_top = 0.5
anchor_right = 0.5
anchor_bottom = 0.5

[connection signal="gui_input" from="." to="." method="_on_GateIO_gui_input"]
[connection signal="mouse_entered" from="." to="." method="_on_GateIO_mouse_entered"]
[connection signal="mouse_exited" from="." to="." method="_on_GateIO_mouse_exited"]
